<?xml version="1.0" encoding="utf-8"?>
<!-- Generator: Adobe Illustrator 15.0.0, SVG Export Plug-In . SVG Version: 6.00 Build 0)  -->
<!DOCTYPE svg PUBLIC "-//W3C//DTD SVG 1.1//EN" "http://www.w3.org/Graphics/SVG/1.1/DTD/svg11.dtd">
<svg version="1.1"
	 id="svg8" inkscape:version="0.92.2 (5c3e80d, 2017-08-06)" sodipodi:docname="A_EQPT_CLAPET.svg" xmlns:svg="http://www.w3.org/2000/svg" xmlns:sodipodi="http://sodipodi.sourceforge.net/DTD/sodipodi-0.dtd" xmlns:rdf="http://www.w3.org/1999/02/22-rdf-syntax-ns#" xmlns:cc="http://creativecommons.org/ns#" xmlns:inkscape="http://www.inkscape.org/namespaces/inkscape" xmlns:dc="http://purl.org/dc/elements/1.1/"
	 xmlns="http://www.w3.org/2000/svg" xmlns:xlink="http://www.w3.org/1999/xlink" x="0px" y="0px" width="99.213px"
	 height="99.213px" viewBox="0 0 99.213 99.213" enable-background="new 0 0 99.213 99.213" xml:space="preserve">
<defs>


		<inkscape:path-effect  weight="33.333333" id="path-effect821" effect="bspline" steps="2" apply_with_weight="true" only_selected="false" apply_no_weight="true" helper_size="0" is_visible="true">
		</inkscape:path-effect>

		<inkscape:path-effect  weight="33.333333" id="path-effect817" effect="bspline" steps="2" apply_with_weight="true" only_selected="false" apply_no_weight="true" helper_size="0" is_visible="true">
		</inkscape:path-effect>
</defs>
<sodipodi:namedview  units="px" id="base" fit-margin-bottom="0" fit-margin-right="0" inkscape:window-y="-4" inkscape:window-x="-4" inkscape:window-height="1024" inkscape:window-width="1920" inkscape:current-layer="layer1" inkscape:document-units="mm" inkscape:pageshadow="2" inkscape:pageopacity="0.0" fit-margin-left="0" fit-margin-top="0" showgrid="false" inkscape:cy="-5.8658605" inkscape:cx="-52.344887" inkscape:zoom="5.6568543" borderopacity="1.0" bordercolor="#666666" pagecolor="#ffffff" inkscape:window-maximized="1" showguides="false">
	</sodipodi:namedview>
<g>
	<rect x="2.144" y="2.142" fill="none" width="94.925" height="94.927"/>
	<polygon points="97.069,2.142 2.144,97.071 2.144,2.142 	"/>
	<polygon fill="param(fill) #FFFFFF" points="2.145,97.071 97.069,2.142 97.069,97.071 	"/>
	<rect x="2.144" y="2.142" fill="none" stroke="param(outline) #000000" stroke-width="2" stroke-miterlimit="10" width="94.925" height="94.927"/>
</g>
</svg>
