<?xml version="1.0" encoding="utf-8"?>
<!-- Generator: Adobe Illustrator 15.0.0, SVG Export Plug-In . SVG Version: 6.00 Build 0)  -->
<!DOCTYPE svg PUBLIC "-//W3C//DTD SVG 1.1//EN" "http://www.w3.org/Graphics/SVG/1.1/DTD/svg11.dtd">
<svg version="1.1"
	 id="svg8" inkscape:version="0.92.2 (5c3e80d, 2017-08-06)" sodipodi:docname="A_EQPT_CLAPET.svg" xmlns:svg="http://www.w3.org/2000/svg" xmlns:sodipodi="http://sodipodi.sourceforge.net/DTD/sodipodi-0.dtd" xmlns:rdf="http://www.w3.org/1999/02/22-rdf-syntax-ns#" xmlns:cc="http://creativecommons.org/ns#" xmlns:inkscape="http://www.inkscape.org/namespaces/inkscape" xmlns:dc="http://purl.org/dc/elements/1.1/"
	 xmlns="http://www.w3.org/2000/svg" xmlns:xlink="http://www.w3.org/1999/xlink" x="0px" y="0px" width="99.213px"
	 height="99.213px" viewBox="0 0 99.213 99.213" enable-background="new 0 0 99.213 99.213" xml:space="preserve">
<defs>


		<inkscape:path-effect  weight="33.333333" steps="2" effect="bspline" id="path-effect821" apply_with_weight="true" is_visible="true" helper_size="0" apply_no_weight="true" only_selected="false">
		</inkscape:path-effect>

		<inkscape:path-effect  weight="33.333333" steps="2" effect="bspline" id="path-effect817" apply_with_weight="true" is_visible="true" helper_size="0" apply_no_weight="true" only_selected="false">
		</inkscape:path-effect>
</defs>
<sodipodi:namedview  units="px" id="base" inkscape:pageopacity="0.0" inkscape:pageshadow="2" inkscape:document-units="mm" inkscape:current-layer="layer1" inkscape:window-width="1920" inkscape:window-height="1024" inkscape:window-x="-4" inkscape:window-y="-4" fit-margin-right="0" fit-margin-bottom="0" pagecolor="#ffffff" bordercolor="#666666" borderopacity="1.0" inkscape:zoom="5.6568543" inkscape:cx="-52.344887" inkscape:cy="-5.8658605" showgrid="false" fit-margin-top="0" fit-margin-left="0" showguides="false" inkscape:window-maximized="1">
	</sodipodi:namedview>
<g>
	<circle fill="param(fill) #1A171B" fill-opacity="param(fill-opacity) 1" stroke="param(outline) #000000" stroke-width="3" stroke-miterlimit="10" cx="49.606" cy="49.606" r="47.218"/>
	<g>
		<path fill="#FFFFFF" d="M82.994,82.994C82.997,82.993,82.994,82.996,82.994,82.994c18.786-18.787,17.292-49.485,0-66.777
			L49.605,49.605L82.994,82.994z"/>
		<path fill="none" d="M83.426,16.649"/>
		<path fill="none" d="M51.147,51.419"/>
	</g>
	<path fill="#FFFFFF" d="M16.218,16.22C16.216,16.219,16.217,16.217,16.218,16.22C-2.568,35.006-1.074,65.702,16.219,82.995
		l33.388-33.388L16.218,16.22z"/>
</g>
</svg>
