<?xml version="1.0" encoding="utf-8"?>
<!-- Generator: Adobe Illustrator 15.0.0, SVG Export Plug-In . SVG Version: 6.00 Build 0)  -->
<!DOCTYPE svg PUBLIC "-//W3C//DTD SVG 1.1//EN" "http://www.w3.org/Graphics/SVG/1.1/DTD/svg11.dtd">
<svg version="1.1"
	 id="svg8" inkscape:version="0.92.2 (5c3e80d, 2017-08-06)" sodipodi:docname="A_EQPT_CLAPET.svg" xmlns:svg="http://www.w3.org/2000/svg" xmlns:sodipodi="http://sodipodi.sourceforge.net/DTD/sodipodi-0.dtd" xmlns:rdf="http://www.w3.org/1999/02/22-rdf-syntax-ns#" xmlns:cc="http://creativecommons.org/ns#" xmlns:inkscape="http://www.inkscape.org/namespaces/inkscape" xmlns:dc="http://purl.org/dc/elements/1.1/"
	 xmlns="http://www.w3.org/2000/svg" xmlns:xlink="http://www.w3.org/1999/xlink" x="0px" y="0px" width="99.213px"
	 height="191.667px" viewBox="0 -92.75 99.213 191.667" enable-background="new 0 -92.75 99.213 191.667" xml:space="preserve">
<defs>


		<inkscape:path-effect  weight="33.333333" id="path-effect821" effect="bspline" steps="2" apply_with_weight="true" only_selected="false" apply_no_weight="true" helper_size="0" is_visible="true">
		</inkscape:path-effect>

		<inkscape:path-effect  weight="33.333333" id="path-effect817" effect="bspline" steps="2" apply_with_weight="true" only_selected="false" apply_no_weight="true" helper_size="0" is_visible="true">
		</inkscape:path-effect>
</defs>
<sodipodi:namedview  units="px" id="base" fit-margin-bottom="0" fit-margin-right="0" inkscape:window-y="-4" inkscape:window-x="-4" inkscape:window-height="1024" inkscape:window-width="1920" inkscape:current-layer="layer1" inkscape:document-units="mm" inkscape:pageshadow="2" inkscape:pageopacity="0.0" fit-margin-left="0" fit-margin-top="0" showgrid="false" inkscape:cy="-5.8658605" inkscape:cx="-52.344887" inkscape:zoom="5.6568543" borderopacity="1.0" bordercolor="#666666" showguides="false" pagecolor="#ffffff" inkscape:window-maximized="1">
	</sodipodi:namedview>
<g id="SHAPE" transform="translate(-0.13139731,0.04991283)" inkscape:label="SHAPE">
	<path id="rect824" stroke="#000000" stroke-width="4" stroke-miterlimit="10" d="M49.741-39.128L49.741-39.128
		c1.269,0,2.292,0.518,2.292,1.157v36.764c0,0.64-1.025,1.158-2.292,1.158l0,0c-1.27,0-2.298-0.518-2.298-1.158v-36.765
		C47.445-38.611,48.474-39.128,49.741-39.128z"/>
</g>
<g id="SHAPE_1_" transform="translate(-0.13139731,0.04991283)" inkscape:label="SHAPE">
	<path id="rect824_1_" stroke="#000000" stroke-width="4" stroke-miterlimit="10" d="M31.391-70.234L31.391-70.234
		c1.147-0.454,2.292-0.433,2.561,0.047l15.456,27.611c0.27,0.48-0.443,1.238-1.588,1.691l0,0c-1.146,0.453-2.293,0.432-2.563-0.049
		L29.8-68.545C29.533-69.024,30.249-69.782,31.391-70.234z"/>
</g>
<g id="SHAPE_2_" transform="translate(-0.13139731,0.04991283)" inkscape:label="SHAPE">
	<path id="rect824_2_" stroke="#000000" stroke-width="4" stroke-miterlimit="10" d="M67.886-70.36L67.886-70.36
		c1.156,0.437,1.883,1.181,1.625,1.664l-14.84,27.85c-0.258,0.485-1.406,0.523-2.563,0.088l0,0c-1.153-0.436-1.885-1.18-1.627-1.666
		l14.845-27.851C65.584-70.756,66.734-70.794,67.886-70.36z"/>
</g>
<path fill="none" stroke="#000000" stroke-width="6" stroke-miterlimit="10" d="M19.333-61.055
	c-0.577,3.516,2.525-28.244,30.289-28.244c30.298,0,30.505,31.501,30.291,28.246"/>
</svg>
