<?xml version="1.0" encoding="utf-8"?>
<!-- Generator: Adobe Illustrator 15.0.0, SVG Export Plug-In . SVG Version: 6.00 Build 0)  -->
<!DOCTYPE svg PUBLIC "-//W3C//DTD SVG 1.1//EN" "http://www.w3.org/Graphics/SVG/1.1/DTD/svg11.dtd">
<svg version="1.1"
	 id="svg8" inkscape:version="0.92.5 (2060ec1f9f, 2020-04-08)" sodipodi:docname="AEP_STATION_DESINFECTION.svg" xmlns:svg="http://www.w3.org/2000/svg" xmlns:sodipodi="http://sodipodi.sourceforge.net/DTD/sodipodi-0.dtd" xmlns:rdf="http://www.w3.org/1999/02/22-rdf-syntax-ns#" xmlns:cc="http://creativecommons.org/ns#" xmlns:inkscape="http://www.inkscape.org/namespaces/inkscape" xmlns:dc="http://purl.org/dc/elements/1.1/" xmlns:osb="http://www.openswatchbook.org/uri/2009/osb"
	 xmlns="http://www.w3.org/2000/svg" xmlns:xlink="http://www.w3.org/1999/xlink" x="0px" y="0px" width="99.213px" height="202px"
	 viewBox="0 0 99.213 202" enable-background="new 0 0 99.213 202" xml:space="preserve">
<linearGradient id="polygon970_1_" gradientUnits="userSpaceOnUse" x1="-247.8936" y1="521.5" x2="-246.8936" y2="521.5">
	<stop  offset="0" style="stop-color:#000000"/>
	<stop  offset="1" style="stop-color:#000000"/>
</linearGradient>
<polygon id="polygon970" inkscape:export-filename="C:\Users\Dephine\Documents\Teletravail\Symbo astee\SYMBOLES_AEP_SVG\export_png\AEP_STATION_DESINFECTION.png" inkscape:export-xdpi="96" inkscape:export-ydpi="96" fill="param(fill) #FFFFFF" stroke="param(outline) url(#polygon970_1_)" stroke-width="3" stroke-linecap="square" stroke-miterlimit="10" points="
	51.737,97.891 51.737,97.891 51.251,98.298 50.728,98.583 50.151,98.742 49.584,98.824 48.974,98.785 48.406,98.623 47.876,98.336
	47.384,97.935 2.723,53.268 2.723,53.268 2.317,52.778 2.033,52.25 1.87,51.682 1.83,51.073 1.91,50.501 2.072,49.935 2.357,49.405
	2.723,48.873 47.347,4.251 47.347,4.251 47.876,3.885 48.406,3.602 48.974,3.438 49.543,3.356 50.151,3.396 50.728,3.56
	51.251,3.845 51.737,4.251 96.403,48.913 96.403,48.913 96.812,49.405 97.093,49.935 97.259,50.501 97.297,51.112 97.216,51.682
	97.056,52.25 96.771,52.778 96.362,53.268 ">
</polygon>
<defs>


		<inkscape:path-effect  weight="33.333333" id="path-effect821" effect="bspline" steps="2" apply_with_weight="true" only_selected="false" apply_no_weight="true" helper_size="0" is_visible="true">
		</inkscape:path-effect>

		<inkscape:path-effect  weight="33.333333" id="path-effect817" effect="bspline" steps="2" apply_with_weight="true" only_selected="false" apply_no_weight="true" helper_size="0" is_visible="true">
		</inkscape:path-effect>
</defs>
<sodipodi:namedview  units="px" id="base" fit-margin-bottom="0" fit-margin-right="0" inkscape:window-y="-8" inkscape:window-x="-8" inkscape:window-height="987" inkscape:window-width="1680" inkscape:current-layer="svg8" inkscape:document-units="mm" inkscape:pageshadow="2" inkscape:pageopacity="0.0" fit-margin-left="0" fit-margin-top="0" showgrid="false" inkscape:cy="161.05001" inkscape:cx="52.846996" inkscape:zoom="7.919596" borderopacity="1.0" bordercolor="#666666" pagecolor="#ffffff" inkscape:window-maximized="1">
	</sodipodi:namedview>
<line id="line977" fill="none" stroke="#EB5D1D" stroke-width="0.25" stroke-linecap="square" stroke-miterlimit="10" x1="461.745" y1="295.124" x2="461.745" y2="295.124"/>
<polygon id="polygon983" points="20.988,61.388 78.054,61.388 49.635,90.728 "/>
</svg>
