<?xml version="1.0" encoding="utf-8"?>
<!-- Generator: Adobe Illustrator 15.0.0, SVG Export Plug-In . SVG Version: 6.00 Build 0)  -->
<!DOCTYPE svg PUBLIC "-//W3C//DTD SVG 1.1//EN" "http://www.w3.org/Graphics/SVG/1.1/DTD/svg11.dtd">
<svg version="1.1"
	 id="svg8" inkscape:version="0.92.2 (5c3e80d, 2017-08-06)" sodipodi:docname="A_EQPT_VANNE.svg" xmlns:svg="http://www.w3.org/2000/svg" xmlns:sodipodi="http://sodipodi.sourceforge.net/DTD/sodipodi-0.dtd" xmlns:rdf="http://www.w3.org/1999/02/22-rdf-syntax-ns#" xmlns:cc="http://creativecommons.org/ns#" xmlns:inkscape="http://www.inkscape.org/namespaces/inkscape" xmlns:dc="http://purl.org/dc/elements/1.1/"
	 xmlns="http://www.w3.org/2000/svg" xmlns:xlink="http://www.w3.org/1999/xlink" x="0px" y="0px" width="99.213px"
	 height="171.333px" viewBox="0 0 99.213 171.333" enable-background="new 0 0 99.213 171.333" xml:space="preserve">
<defs>


		<inkscape:path-effect  weight="33.333333" steps="2" effect="bspline" id="path-effect821" apply_with_weight="true" is_visible="true" helper_size="0" apply_no_weight="true" only_selected="false">
		</inkscape:path-effect>

		<inkscape:path-effect  weight="33.333333" steps="2" effect="bspline" id="path-effect817" apply_with_weight="true" is_visible="true" helper_size="0" apply_no_weight="true" only_selected="false">
		</inkscape:path-effect>
</defs>
<sodipodi:namedview  units="px" id="base" inkscape:pageopacity="0.0" inkscape:pageshadow="2" inkscape:document-units="mm" inkscape:current-layer="layer1" inkscape:window-width="1920" inkscape:window-height="1056" inkscape:window-x="1916" inkscape:window-y="-4" fit-margin-right="0" fit-margin-bottom="0" pagecolor="#ffffff" bordercolor="#666666" borderopacity="1.0" inkscape:zoom="7.919596" inkscape:cx="-34.417556" inkscape:cy="29.730181" showgrid="false" fit-margin-top="0" fit-margin-left="0" inkscape:window-maximized="1">
	</sodipodi:namedview>
<line fill="none" stroke="#EB5D1D" stroke-width="0.25" stroke-linecap="square" stroke-miterlimit="10" x1="461.745" y1="295.124" x2="461.745" y2="295.124"/>
<g>

		<line fill="none" stroke="#000000" stroke-width="6" stroke-linecap="square" stroke-miterlimit="10" x1="50.313" y1="22.041" x2="50.313" y2="7.373"/>

		<line fill="none" stroke="#000000" stroke-width="6" stroke-linecap="square" stroke-miterlimit="10" x1="83.508" y1="54.992" x2="96.946" y2="54.992"/>

		<circle fill="param(fill) #FFFFFF" fill-opacity="param(fill-opacity) 1" stroke="param(outline) #000000" stroke-width="4" stroke-linecap="square" stroke-miterlimit="10" cx="50.552" cy="55.156" r="33.613"/>

		<line fill="none" stroke="#000000" stroke-width="6" stroke-linecap="square" stroke-miterlimit="10" x1="2.267" y1="54.992" x2="15.705" y2="54.992"/>
</g>
</svg>
