<?xml version="1.0" encoding="utf-8"?>
<!-- Generator: Adobe Illustrator 15.0.0, SVG Export Plug-In . SVG Version: 6.00 Build 0)  -->
<!DOCTYPE svg PUBLIC "-//W3C//DTD SVG 1.1//EN" "http://www.w3.org/Graphics/SVG/1.1/DTD/svg11.dtd">
<svg version="1.1"
	 id="svg8" inkscape:version="0.92.2 (5c3e80d, 2017-08-06)" sodipodi:docname="A_EQPT_VANNE.svg" xmlns:svg="http://www.w3.org/2000/svg" xmlns:sodipodi="http://sodipodi.sourceforge.net/DTD/sodipodi-0.dtd" xmlns:rdf="http://www.w3.org/1999/02/22-rdf-syntax-ns#" xmlns:cc="http://creativecommons.org/ns#" xmlns:inkscape="http://www.inkscape.org/namespaces/inkscape" xmlns:dc="http://purl.org/dc/elements/1.1/"
	 xmlns="http://www.w3.org/2000/svg" xmlns:xlink="http://www.w3.org/1999/xlink" x="0px" y="0px" width="99.213px"
	 height="99.213px" viewBox="0 0 99.213 99.213" enable-background="new 0 0 99.213 99.213" xml:space="preserve">
<defs>


		<inkscape:path-effect  weight="33.333333" id="path-effect821" effect="bspline" steps="2" apply_with_weight="true" only_selected="false" apply_no_weight="true" helper_size="0" is_visible="true">
		</inkscape:path-effect>

		<inkscape:path-effect  weight="33.333333" id="path-effect817" effect="bspline" steps="2" apply_with_weight="true" only_selected="false" apply_no_weight="true" helper_size="0" is_visible="true">
		</inkscape:path-effect>
</defs>
<sodipodi:namedview  units="px" id="base" fit-margin-bottom="0" fit-margin-right="0" inkscape:window-y="-4" inkscape:window-x="1916" inkscape:window-height="1056" inkscape:window-width="1920" inkscape:current-layer="layer1" inkscape:document-units="mm" inkscape:pageshadow="2" inkscape:pageopacity="0.0" inkscape:window-maximized="1" fit-margin-left="0" fit-margin-top="0" showgrid="false" inkscape:cy="29.730181" inkscape:cx="-34.417556" inkscape:zoom="7.919596" borderopacity="1.0" bordercolor="#666666" pagecolor="#ffffff">
	</sodipodi:namedview>
<line fill="none" stroke="#EB5D1D" stroke-width="0.25" stroke-linecap="square" stroke-miterlimit="10" x1="461.745" y1="295.124" x2="461.745" y2="295.124"/>
<g>
	<path fill="param(fill) #FFFFFF" stroke="param(outline) #000000" stroke-width="2" stroke-miterlimit="8" d="M2.101,23.047c0,0,0.457,17.318,0.051,47.422
		c-0.406,30.105,95.484,32.453,94.675,0.381c0.104-16.229,0.08-48.578,0.08-48.578"/>

		<ellipse fill="param(fill) #FFFFFF" fill-opacity="param(fill-opacity) 1" stroke="param(outline) #000000" stroke-width="2" stroke-miterlimit="8" cx="49.403" cy="21.558" rx="47.501" ry="16.333"/>
	<path d="M97.703,44.292c-0.185-36.869,1.412,3.771,0,28.971c-1.41,25.197-95.474,29.715-96.354-6.346
		C0.136,17.173,1.89,15.318,1.89,44.292C1.89,73.267,97.834,70.69,97.703,44.292z"/>
</g>
</svg>
