<?xml version="1.0" encoding="utf-8"?>
<!-- Generator: Adobe Illustrator 15.0.0, SVG Export Plug-In . SVG Version: 6.00 Build 0)  -->
<!DOCTYPE svg PUBLIC "-//W3C//DTD SVG 1.1//EN" "http://www.w3.org/Graphics/SVG/1.1/DTD/svg11.dtd">
<svg version="1.1"
	 id="svg8" inkscape:version="0.92.2 (5c3e80d, 2017-08-06)" sodipodi:docname="A_EQPT_VANNE.svg" xmlns:svg="http://www.w3.org/2000/svg" xmlns:sodipodi="http://sodipodi.sourceforge.net/DTD/sodipodi-0.dtd" xmlns:rdf="http://www.w3.org/1999/02/22-rdf-syntax-ns#" xmlns:cc="http://creativecommons.org/ns#" xmlns:inkscape="http://www.inkscape.org/namespaces/inkscape" xmlns:dc="http://purl.org/dc/elements/1.1/"
	 xmlns="http://www.w3.org/2000/svg" xmlns:xlink="http://www.w3.org/1999/xlink" x="0px" y="0px" width="99.213px" height="202px"
	 viewBox="0 -92.5 99.213 202" enable-background="new 0 -92.5 99.213 202" xml:space="preserve">
<polygon fill="param(fill) #FFFFFF" fill-opacity="param(fill-opacity) 1" stroke="param(outline) #010202" stroke-width="3" stroke-linecap="square" stroke-miterlimit="10" points="51.78,5.422
	51.78,5.422 51.294,5.829 50.771,6.114 50.194,6.274 49.627,6.356 49.017,6.317 48.449,6.154 47.919,5.867 47.427,5.466
	2.766,-39.201 2.766,-39.201 2.36,-39.691 2.076,-40.219 1.913,-40.787 1.873,-41.396 1.953,-41.968 2.115,-42.534 2.4,-43.064
	2.766,-43.596 47.39,-88.218 47.39,-88.218 47.919,-88.584 48.449,-88.867 49.017,-89.03 49.586,-89.113 50.194,-89.072
	50.771,-88.909 51.294,-88.624 51.78,-88.218 96.446,-43.556 96.446,-43.556 96.854,-43.064 97.136,-42.534 97.302,-41.968
	97.34,-41.357 97.259,-40.787 97.099,-40.219 96.813,-39.691 96.405,-39.201 "/>
<defs>


		<inkscape:path-effect  weight="33.333333" id="path-effect821" effect="bspline" steps="2" apply_with_weight="true" only_selected="false" apply_no_weight="true" helper_size="0" is_visible="true">
		</inkscape:path-effect>

		<inkscape:path-effect  weight="33.333333" id="path-effect817" effect="bspline" steps="2" apply_with_weight="true" only_selected="false" apply_no_weight="true" helper_size="0" is_visible="true">
		</inkscape:path-effect>
</defs>
<sodipodi:namedview  units="px" id="base" fit-margin-bottom="0" fit-margin-right="0" inkscape:window-y="-4" inkscape:window-x="1916" inkscape:window-height="1056" inkscape:window-width="1920" inkscape:current-layer="layer1" inkscape:document-units="mm" inkscape:pageshadow="2" inkscape:pageopacity="0.0" fit-margin-left="0" fit-margin-top="0" showgrid="false" inkscape:cy="29.730181" inkscape:cx="-34.417556" inkscape:zoom="7.919596" borderopacity="1.0" bordercolor="#666666" pagecolor="#ffffff" inkscape:window-maximized="1">
	</sodipodi:namedview>
<line fill="none" stroke="#EB5D1D" stroke-width="0.25" stroke-linecap="square" stroke-miterlimit="10" x1="461.745" y1="295.124" x2="461.745" y2="295.124"/>
<polygon points="51.75,-61.456 51.75,-61.456 52.383,-60.823 52.96,-60.186 53.479,-59.496 53.878,-58.809 54.282,-58.119
	54.513,-57.371 54.742,-56.621 54.854,-55.819 54.854,-55.819 54.854,-55.47 54.797,-55.128 54.624,-54.778 54.394,-54.493
	54.394,-54.493 54.166,-54.262 53.878,-54.089 53.534,-53.975 53.187,-53.917 53.187,-53.917 52.843,-53.917 52.5,-53.975
	52.21,-54.089 51.926,-54.206 51.926,-54.206 51.638,-54.433 51.405,-54.724 51.29,-55.07 51.176,-55.47 51.176,-55.47
	51.06,-56.047 50.946,-56.621 50.714,-57.136 50.427,-57.657 50.14,-58.119 49.793,-58.577 49.391,-59.036 48.933,-59.439
	48.933,-59.439 48.473,-59.842 47.953,-60.186 47.379,-60.42 46.861,-60.648 46.286,-60.823 45.708,-60.994 45.137,-61.05
	44.5,-61.05 44.5,-61.05 43.582,-60.994 42.717,-60.823 41.855,-60.531 41.051,-60.13 40.36,-59.556 39.669,-58.924 39.039,-58.119
	38.405,-57.257 38.405,-57.257 37.944,-56.335 37.542,-55.414 37.197,-54.433 36.908,-53.399 36.679,-52.249 36.507,-51.097
	36.391,-49.948 36.391,-48.683 36.391,-48.683 36.391,-47.419 36.507,-46.153 36.679,-45.002 36.908,-43.909 37.197,-42.815
	37.542,-41.836 37.944,-40.86 38.405,-39.998 38.405,-39.998 38.98,-39.133 39.612,-38.386 40.304,-37.753 41.051,-37.235
	41.855,-36.834 42.66,-36.545 43.582,-36.372 44.5,-36.315 44.5,-36.315 45.248,-36.372 45.939,-36.43 46.63,-36.545
	47.264,-36.775 47.84,-37.006 48.355,-37.294 48.875,-37.639 49.391,-38.042 49.391,-38.042 49.851,-38.5 50.256,-39.078
	50.599,-39.653 50.946,-40.284 51.176,-40.973 51.405,-41.724 51.579,-42.469 51.692,-43.334 51.692,-43.334 51.75,-43.793
	51.867,-44.195 52.097,-44.539 52.383,-44.772 52.383,-44.772 52.67,-44.946 52.96,-45.056 53.304,-45.117 53.706,-45.117
	53.706,-45.117 54.051,-45.002 54.394,-44.885 54.687,-44.713 54.916,-44.485 54.916,-44.485 55.144,-44.141 55.317,-43.793
	55.378,-43.449 55.378,-43.044 55.378,-43.044 55.2,-42.008 54.916,-40.973 54.624,-39.998 54.226,-39.078 53.821,-38.269
	53.304,-37.467 52.729,-36.717 52.097,-36.027 52.097,-36.027 51.405,-35.393 50.599,-34.876 49.737,-34.416 48.816,-34.01
	47.896,-33.726 46.917,-33.493 45.826,-33.382 44.731,-33.382 44.731,-33.382 44.043,-33.382 43.296,-33.439 42.66,-33.493
	41.97,-33.611 41.339,-33.783 40.762,-34.01 40.131,-34.244 39.558,-34.474 39.039,-34.819 38.519,-35.164 38.002,-35.509
	37.485,-35.912 37.022,-36.372 36.619,-36.889 36.163,-37.406 35.757,-37.923 35.757,-37.923 35.126,-39.019 34.549,-40.169
	34.09,-41.38 33.687,-42.697 33.341,-44.082 33.169,-45.52 32.997,-47.015 32.997,-48.626 32.997,-48.626 32.997,-50.177
	33.169,-51.673 33.399,-53.055 33.687,-54.433 34.148,-55.757 34.665,-56.968 35.24,-58.172 35.93,-59.267 35.93,-59.267
	36.334,-59.842 36.794,-60.42 37.253,-60.876 37.713,-61.397 38.175,-61.801 38.693,-62.204 39.209,-62.548 39.728,-62.834
	40.304,-63.122 40.878,-63.352 41.509,-63.58 42.087,-63.755 42.717,-63.869 43.351,-63.986 44.043,-64.043 44.731,-64.043
	44.731,-64.043 45.708,-63.986 46.688,-63.869 47.607,-63.697 48.53,-63.409 49.391,-63.009 50.194,-62.603 51.002,-62.084 "/>
<polygon points="59.745,-63.526 59.745,-63.526 59.978,-63.639 60.269,-63.755 60.552,-63.755 60.896,-63.814 60.896,-63.814
	61.185,-63.755 61.474,-63.755 61.703,-63.639 61.933,-63.526 61.933,-63.526 62.163,-63.352 62.337,-63.122 62.449,-62.892
	62.449,-62.661 62.449,-35.107 62.449,-35.107 62.449,-34.819 62.337,-34.59 62.163,-34.416 61.933,-34.244 61.933,-34.244
	61.703,-34.13 61.474,-34.01 61.185,-33.957 60.896,-33.957 60.896,-33.957 60.552,-33.957 60.269,-34.01 59.978,-34.13
	59.745,-34.244 59.745,-34.244 59.574,-34.416 59.401,-34.649 59.345,-34.876 59.285,-35.107 59.285,-62.661 59.285,-62.661
	59.345,-62.949 59.401,-63.179 59.574,-63.352 "/>
<polygon points="21.031,-31.081 78.097,-31.081 49.678,-1.741 "/>
</svg>
