<?xml version="1.0" encoding="utf-8"?>
<!-- Generator: Adobe Illustrator 15.0.0, SVG Export Plug-In . SVG Version: 6.00 Build 0)  -->
<!DOCTYPE svg PUBLIC "-//W3C//DTD SVG 1.1//EN" "http://www.w3.org/Graphics/SVG/1.1/DTD/svg11.dtd">
<svg version="1.1"
	 id="svg8" xmlns:svg="http://www.w3.org/2000/svg" xmlns:sodipodi="http://sodipodi.sourceforge.net/DTD/sodipodi-0.dtd" xmlns:rdf="http://www.w3.org/1999/02/22-rdf-syntax-ns#" xmlns:cc="http://creativecommons.org/ns#" xmlns:inkscape="http://www.inkscape.org/namespaces/inkscape" xmlns:dc="http://purl.org/dc/elements/1.1/" inkscape:version="0.92.2 (5c3e80d, 2017-08-06)" sodipodi:docname="A_EQPT_VANNE.svg"
	 xmlns="http://www.w3.org/2000/svg" xmlns:xlink="http://www.w3.org/1999/xlink" x="0px" y="0px" width="99.713px"
	 height="42.895px" viewBox="0 0 99.713 42.895" enable-background="new 0 0 99.713 42.895" xml:space="preserve">
<defs>


		<inkscape:path-effect  weight="33.333333" id="path-effect821" effect="bspline" steps="2" only_selected="false" apply_no_weight="true" helper_size="0" is_visible="true" apply_with_weight="true">
		</inkscape:path-effect>

		<inkscape:path-effect  weight="33.333333" id="path-effect817" effect="bspline" steps="2" only_selected="false" apply_no_weight="true" helper_size="0" is_visible="true" apply_with_weight="true">
		</inkscape:path-effect>
</defs>
<sodipodi:namedview  units="px" id="base" fit-margin-left="0" fit-margin-top="0" showgrid="false" inkscape:cy="29.730181" inkscape:cx="-34.417556" inkscape:zoom="7.919596" borderopacity="1.0" bordercolor="#666666" pagecolor="#ffffff" inkscape:window-maximized="1" fit-margin-bottom="0" fit-margin-right="0" inkscape:window-y="-4" inkscape:window-x="1916" inkscape:window-height="1056" inkscape:window-width="1920" inkscape:current-layer="layer1" inkscape:document-units="mm" inkscape:pageshadow="2" inkscape:pageopacity="0.0">
	</sodipodi:namedview>
<line fill="param(fill)" fill-opacity="param(fill-opacity) 1" stroke="param(outline)" stroke-width="param(outline-width)" stroke-linecap="square" stroke-miterlimit="10" x1="461.745" y1="295.124" x2="461.745" y2="295.124"/>
<g>

		<rect x="4.211" y="4.585" fill="param(fill)" fill-opacity="param(fill-opacity) 1" stroke="param(outline)" stroke-width="2" stroke-miterlimit="8" width="91.29" height="33.726"/>
	<line fill="param(fill)" fill-opacity="param(fill-opacity) 1" stroke="param(outline)" stroke-width="0.5" stroke-miterlimit="8" x1="4.211" y1="4.585" x2="95.501" y2="38.311"/>
	<line fill="param(fill)" fill-opacity="param(fill-opacity) 1" stroke="param(outline)" stroke-width="0.5" stroke-miterlimit="8" x1="4.211" y1="37.531" x2="95.501" y2="4.585"/>
</g>
</svg>
