<?xml version="1.0" encoding="UTF-8" standalone="no"?>
<!-- Generator: Adobe Illustrator 15.0.0, SVG Export Plug-In . SVG Version: 6.00 Build 0)  -->

<svg
   xmlns:dc="http://purl.org/dc/elements/1.1/"
   xmlns:cc="http://creativecommons.org/ns#"
   xmlns:rdf="http://www.w3.org/1999/02/22-rdf-syntax-ns#"
   xmlns:svg="http://www.w3.org/2000/svg"
   xmlns="http://www.w3.org/2000/svg"
   xmlns:sodipodi="http://sodipodi.sourceforge.net/DTD/sodipodi-0.dtd"
   xmlns:inkscape="http://www.inkscape.org/namespaces/inkscape"
   version="1.1"
   id="svg8"
   inkscape:version="0.92.3 (2405546, 2018-03-11)"
   sodipodi:docname="AEP_ASPIRATION.svg"
   x="0px"
   y="0px"
   width="99.213px"
   height="99.213px"
   viewBox="0 0 99.213 99.213"
   enable-background="new 0 0 99.213 99.213"
   xml:space="preserve"><metadata
   id="metadata36"><rdf:RDF><cc:Work
       rdf:about=""><dc:format>image/svg+xml</dc:format><dc:type
         rdf:resource="http://purl.org/dc/dcmitype/StillImage" /></cc:Work></rdf:RDF></metadata>
<defs
   id="defs26">


		<inkscape:path-effect
   weight="33.333333"
   steps="2"
   effect="bspline"
   id="path-effect821"
   apply_with_weight="true"
   is_visible="true"
   helper_size="0"
   apply_no_weight="true"
   only_selected="false">
		</inkscape:path-effect>

		<inkscape:path-effect
   weight="33.333333"
   steps="2"
   effect="bspline"
   id="path-effect817"
   apply_with_weight="true"
   is_visible="true"
   helper_size="0"
   apply_no_weight="true"
   only_selected="false">
		</inkscape:path-effect>



</defs>
<sodipodi:namedview
   units="px"
   id="base"
   inkscape:pageopacity="0.0"
   inkscape:pageshadow="2"
   inkscape:document-units="mm"
   inkscape:current-layer="svg8"
   inkscape:window-width="1680"
   inkscape:window-height="988"
   inkscape:window-x="-8"
   inkscape:window-y="-8"
   fit-margin-right="0"
   fit-margin-bottom="0"
   pagecolor="#ffffff"
   bordercolor="#666666"
   borderopacity="1.0"
   inkscape:zoom="2.8284272"
   inkscape:cx="-11.200529"
   inkscape:cy="-5.8658605"
   showgrid="false"
   fit-margin-top="0"
   fit-margin-left="0"
   showguides="false"
   inkscape:window-maximized="1">
	</sodipodi:namedview>

<polygon
   style="fill:#ffffff;fill-opacity:1;stroke:#1a171b;stroke-width:3;stroke-miterlimit:10"
   id="polygon31"
   points="97.587,87.894 51.286,8.467 2.44,87.894 "
   stroke-miterlimit="10" /><polyline
   style="fill:#1a171b"
   id="polyline29"
   points="97.899,87.893 97.292,86.854 71.039,41.9 70.839,42.221 42.698,87.893  " /></svg>
