<?xml version="1.0" encoding="UTF-8" standalone="no"?>
<!-- Generator: Adobe Illustrator 15.0.0, SVG Export Plug-In . SVG Version: 6.00 Build 0)  -->

<svg
   xmlns:dc="http://purl.org/dc/elements/1.1/"
   xmlns:cc="http://creativecommons.org/ns#"
   xmlns:rdf="http://www.w3.org/1999/02/22-rdf-syntax-ns#"
   xmlns:svg="http://www.w3.org/2000/svg"
   xmlns="http://www.w3.org/2000/svg"
   xmlns:sodipodi="http://sodipodi.sourceforge.net/DTD/sodipodi-0.dtd"
   xmlns:inkscape="http://www.inkscape.org/namespaces/inkscape"
   version="1.1"
   id="svg8"
   inkscape:version="0.92.5 (2060ec1f9f, 2020-04-08)"
   sodipodi:docname="AEP_PURGE.svg"
   x="0px"
   y="0px"
   width="99.213px"
   height="136.926px"
   viewBox="0 0 99.213 136.926"
   enable-background="new 0 0 99.213 136.926"
   xml:space="preserve"><metadata
   id="metadata1466"><rdf:RDF><cc:Work
       rdf:about=""><dc:format>image/svg+xml</dc:format><dc:type
         rdf:resource="http://purl.org/dc/dcmitype/StillImage" /><dc:title></dc:title></cc:Work></rdf:RDF></metadata>
<defs
   id="defs1452">


		<inkscape:path-effect
   weight="33.333333"
   steps="2"
   effect="bspline"
   id="path-effect821"
   apply_with_weight="true"
   is_visible="true"
   helper_size="0"
   apply_no_weight="true"
   only_selected="false">
		</inkscape:path-effect>

		<inkscape:path-effect
   weight="33.333333"
   steps="2"
   effect="bspline"
   id="path-effect817"
   apply_with_weight="true"
   is_visible="true"
   helper_size="0"
   apply_no_weight="true"
   only_selected="false">
		</inkscape:path-effect>




</defs>
<sodipodi:namedview
   units="px"
   id="base"
   inkscape:pageopacity="0.0"
   inkscape:pageshadow="2"
   inkscape:document-units="mm"
   inkscape:current-layer="svg8"
   inkscape:window-width="1680"
   inkscape:window-height="987"
   inkscape:window-x="-8"
   inkscape:window-y="-8"
   fit-margin-right="0"
   fit-margin-bottom="0"
   pagecolor="#ffffff"
   bordercolor="#666666"
   borderopacity="1.0"
   inkscape:zoom="2.8"
   inkscape:cx="6.6830254"
   inkscape:cy="87.238791"
   showgrid="false"
   fit-margin-top="0"
   fit-margin-left="0"
   inkscape:window-maximized="1">
	</sodipodi:namedview>
<line
   fill="none"
   stroke="EB5D1D"
   stroke-width="0.25"
   stroke-linecap="square"
   stroke-miterlimit="10"
   x1="461.745"
   y1="295.124"
   x2="461.745"
   y2="295.124"
   id="line1455" />
<g
   id="g2020"><path
     style="stroke:#000000;stroke-opacity:1"
     fill="param(fill) #1A171B"
     fill-opacity="param(fill-opacity) 1"
     d="m 61.486072,12.695509 c 0.03014,6.50193 -5.390365,11.797117 -12.106293,11.828253 C 42.662851,24.554902 37.194473,19.309198 37.164334,12.808268 37.134184,6.3043379 42.55369,1.0091556 49.270618,0.97801486 55.986541,0.94587886 61.455924,6.1925787 61.486072,12.695509 Z"
     id="path1457"
     inkscape:connector-curvature="0" /><line
     stroke-miterlimit="8"
     x1="49.32386"
     y1="12.462888"
     x2="49.491013"
     y2="48.516502"
     id="line1459"
     style="fill:none;stroke:#000000;stroke-width:3;stroke-miterlimit:8;stroke-opacity:1" /><polygon
     transform="rotate(179.73437,49.453682,39.964293)"
     style="stroke:#000000;stroke-opacity:1"
     fill="param(fill) #1A171B"
     fill-opacity="param(fill-opacity) 1"
     points="49.427,0 38.192,32.396 60.72,32.393 "
     id="polygon1461" /></g>
</svg>
