<?xml version="1.0" encoding="utf-8"?>
<!-- Generator: Adobe Illustrator 15.0.0, SVG Export Plug-In . SVG Version: 6.00 Build 0)  -->
<!DOCTYPE svg PUBLIC "-//W3C//DTD SVG 1.1//EN" "http://www.w3.org/Graphics/SVG/1.1/DTD/svg11.dtd">
<svg version="1.1"
	 id="svg8" inkscape:version="0.92.2 (5c3e80d, 2017-08-06)" sodipodi:docname="A_EQPT_VANNE.svg" xmlns:svg="http://www.w3.org/2000/svg" xmlns:sodipodi="http://sodipodi.sourceforge.net/DTD/sodipodi-0.dtd" xmlns:rdf="http://www.w3.org/1999/02/22-rdf-syntax-ns#" xmlns:cc="http://creativecommons.org/ns#" xmlns:inkscape="http://www.inkscape.org/namespaces/inkscape" xmlns:dc="http://purl.org/dc/elements/1.1/"
	 xmlns="http://www.w3.org/2000/svg" xmlns:xlink="http://www.w3.org/1999/xlink" x="0px" y="0px" width="99.213px" height="88px"
	 viewBox="0 6.219 99.213 88" enable-background="new 0 6.219 99.213 88" xml:space="preserve">
<defs>


		<inkscape:path-effect  weight="33.333333" id="path-effect821" effect="bspline" steps="2" apply_with_weight="true" only_selected="false" apply_no_weight="true" helper_size="0" is_visible="true">
		</inkscape:path-effect>

		<inkscape:path-effect  weight="33.333333" id="path-effect817" effect="bspline" steps="2" apply_with_weight="true" only_selected="false" apply_no_weight="true" helper_size="0" is_visible="true">
		</inkscape:path-effect>
</defs>
<sodipodi:namedview  units="px" id="base" fit-margin-bottom="0" fit-margin-right="0" inkscape:window-y="-4" inkscape:window-x="1916" inkscape:window-height="1056" inkscape:window-width="1920" inkscape:current-layer="layer1" inkscape:document-units="mm" inkscape:pageshadow="2" inkscape:pageopacity="0.0" fit-margin-left="0" fit-margin-top="0" showgrid="false" inkscape:cy="29.730181" inkscape:cx="-34.417556" inkscape:zoom="7.919596" borderopacity="1.0" bordercolor="#666666" pagecolor="#ffffff" inkscape:window-maximized="1">
	</sodipodi:namedview>
<line fill="none" stroke="#EB5D1D" stroke-width="0.25" stroke-linecap="square" stroke-miterlimit="10" x1="461.745" y1="295.124" x2="461.745" y2="295.124"/>
<g>
	<polygon fill="param(fill) #FFFFFF" fill-opacity="param(fill-opacity) 1" stroke="param(outline) #000000" stroke-width="4" stroke-miterlimit="10" points="25.856,91.332 2.212,50.38
		25.856,9.427 73.144,9.427 96.787,50.38 73.144,91.332 	"/>
	<g>
		<path d="M47.896,26.833c7.871-0.376,14.969,1.522,20.414,3.92c2.666,1.175,4.692,2.313,7.703,4.46
			c2.022,1.444,5.584,3.881,5.947,6.083c0.488,2.938-1.611,4.814-3.785,4.868c-2.423,0.062-4.316-2.584-6.082-3.921
			c-5.761-4.361-12.996-7.519-22.442-7.569c-8.98-0.049-16.92,3.201-22.573,7.434c-2.189,1.64-3.724,3.942-5.814,4.057
			c-2.498,0.136-4.292-1.863-4.326-3.921c-0.046-2.722,3.657-5.117,5.272-6.354c4.594-3.515,9.156-5.852,15.409-7.569
			C40.76,27.457,44.014,27.018,47.896,26.833z"/>
		<path d="M46.948,40.216c8.691-0.681,16.338,2.186,21.629,6.084c1.844,1.356,4.465,3.375,4.597,5.541
			c0.163,2.67-1.926,4.498-4.327,4.191c-2.728-0.35-4.005-2.756-5.945-4.056c-3.687-2.464-8.772-4.374-15.545-3.921
			c-5.654,0.381-9.747,2.735-13.114,5.542c-1.654,1.378-2.569,2.769-5.137,2.434c-1.806-0.236-3.25-1.559-3.246-3.921
			c0.008-2.55,2.667-4.391,4.597-5.812C34.615,43.236,40.059,40.753,46.948,40.216z"/>
		<path d="M48.434,53.463c5.213-0.385,10.301,1.694,13.383,4.462c1.102,0.985,2.203,2.173,2.435,3.378
			c0.579,3.007-1.966,5.103-4.597,4.732c-1.797-0.254-3.217-2.404-4.596-3.245c-2.6-1.585-7.072-1.952-10.273-0.407
			c-2.839,1.372-3.336,4.083-6.759,3.652c-2.178-0.276-3.732-2.266-3.244-4.732c0.496-2.5,3.153-4.192,5.273-5.406
			C42.663,54.402,45.035,53.715,48.434,53.463z"/>
		<path d="M49.247,67.252c2.873-0.188,5.736,2.225,5.001,5.813c-0.417,2.038-2.647,4.229-5.814,3.649
			c-3.729-0.683-4.672-5.725-2.43-8.11C46.787,67.769,47.756,67.35,49.247,67.252z"/>
	</g>
</g>
</svg>
